---
http_interactions:
- request:
    method: get
    uri: http://localhost:4000/store/api/countries?locale=en-US&per_page=30
    body:
      encoding: US-ASCII
      string: ''
    headers:
      User-Agent:
      - Faraday v0.9.1
      Accept:
      - application/json
      X-Spree-Token:
      - b56019f04b61a50553ee323f5ab68c6b435871971e79c987
      Accept-Encoding:
      - gzip;q=1.0,deflate;q=0.6,identity;q=0.3
  response:
    status:
      code: 200
      message: 'OK '
    headers:
      X-Frame-Options:
      - SAMEORIGIN
      X-Xss-Protection:
      - 1; mode=block
      X-Content-Type-Options:
      - nosniff
      Content-Type:
      - application/json; charset=utf-8
      Etag:
      - '"428f081e3f65fd4acc0a92955fc70747"'
      Cache-Control:
      - max-age=0, private, must-revalidate
      X-Request-Id:
      - d472bf32-fb2d-4a4d-bb69-a9d831437ef4
      X-Runtime:
      - '0.096933'
      Server:
      - WEBrick/1.3.1 (Ruby/2.2.2/2015-04-13)
      Date:
      - Wed, 08 Jul 2015 15:48:52 GMT
      Content-Length:
      - '2802'
      Connection:
      - Keep-Alive
      Set-Cookie:
      - guest_token=IlktOWp4QzhwVnllUlZvTUdxYVg0cHci--0894f31543d298514e717de16954ed48431402de;
        path=/; expires=Sun, 08 Jul 2035 15:48:52 -0000
    body:
      encoding: UTF-8
      string: '{"count":30,"current_page":1,"pages":9,"countries":[{"id":3,"iso_name":"AFGHANISTAN","iso":"AF","iso3":"AFG","name":"Afghanistan","numcode":4},{"id":6,"iso_name":"ALBANIA","iso":"AL","iso3":"ALB","name":"Albania","numcode":8},{"id":62,"iso_name":"ALGERIA","iso":"DZ","iso3":"DZA","name":"Algeria","numcode":12},{"id":11,"iso_name":"AMERICAN
        SAMOA","iso":"AS","iso3":"ASM","name":"American Samoa","numcode":16},{"id":1,"iso_name":"ANDORRA","iso":"AD","iso3":"AND","name":"Andorra","numcode":20},{"id":8,"iso_name":"ANGOLA","iso":"AO","iso3":"AGO","name":"Angola","numcode":24},{"id":5,"iso_name":"ANGUILLA","iso":"AI","iso3":"AIA","name":"Anguilla","numcode":660},{"id":9,"iso_name":"ANTARCTICA","iso":"AQ","iso3":"ATA","name":"Antarctica","numcode":10},{"id":4,"iso_name":"ANTIGUA
        AND BARBUDA","iso":"AG","iso3":"ATG","name":"Antigua and Barbuda","numcode":28},{"id":10,"iso_name":"ARGENTINA","iso":"AR","iso3":"ARG","name":"Argentina","numcode":32},{"id":7,"iso_name":"ARMENIA","iso":"AM","iso3":"ARM","name":"Armenia","numcode":51},{"id":14,"iso_name":"ARUBA","iso":"AW","iso3":"ABW","name":"Aruba","numcode":533},{"id":13,"iso_name":"AUSTRALIA","iso":"AU","iso3":"AUS","name":"Australia","numcode":36},{"id":12,"iso_name":"AUSTRIA","iso":"AT","iso3":"AUT","name":"Austria","numcode":40},{"id":16,"iso_name":"AZERBAIJAN","iso":"AZ","iso3":"AZE","name":"Azerbaijan","numcode":31},{"id":32,"iso_name":"BAHAMAS","iso":"BS","iso3":"BHS","name":"Bahamas","numcode":44},{"id":23,"iso_name":"BAHRAIN","iso":"BH","iso3":"BHR","name":"Bahrain","numcode":48},{"id":19,"iso_name":"BANGLADESH","iso":"BD","iso3":"BGD","name":"Bangladesh","numcode":50},{"id":18,"iso_name":"BARBADOS","iso":"BB","iso3":"BRB","name":"Barbados","numcode":52},{"id":36,"iso_name":"BELARUS","iso":"BY","iso3":"BLR","name":"Belarus","numcode":112},{"id":20,"iso_name":"BELGIUM","iso":"BE","iso3":"BEL","name":"Belgium","numcode":56},{"id":37,"iso_name":"BELIZE","iso":"BZ","iso3":"BLZ","name":"Belize","numcode":84},{"id":25,"iso_name":"BENIN","iso":"BJ","iso3":"BEN","name":"Benin","numcode":204},{"id":27,"iso_name":"BERMUDA","iso":"BM","iso3":"BMU","name":"Bermuda","numcode":60},{"id":33,"iso_name":"BHUTAN","iso":"BT","iso3":"BTN","name":"Bhutan","numcode":64},{"id":29,"iso_name":"BOLIVIA,
        PLURINATIONAL STATE OF","iso":"BO","iso3":"BOL","name":"Bolivia, Plurinational
        State of","numcode":68},{"id":30,"iso_name":"BONAIRE, SINT EUSTATIUS AND SABA","iso":"BQ","iso3":"BES","name":"Bonaire,
        Sint Eustatius and Saba","numcode":535},{"id":17,"iso_name":"BOSNIA AND HERZEGOVINA","iso":"BA","iso3":"BIH","name":"Bosnia
        and Herzegovina","numcode":70},{"id":35,"iso_name":"BOTSWANA","iso":"BW","iso3":"BWA","name":"Botswana","numcode":72},{"id":34,"iso_name":"BOUVET
        ISLAND","iso":"BV","iso3":"BVT","name":"Bouvet Island","numcode":74}]}'
    http_version: 
  recorded_at: Wed, 08 Jul 2015 15:48:52 GMT
recorded_with: VCR 2.9.3
